…
[Each row
is](https://hastie.su.domains/ElemStatLearn/datasets/zip.info.txt) the
256 normalized grayscale values of the 16 x 16 pixel image of a digit.

The first column contains the identity (label) of the digit. The last
column is all NA.

``` r
# str(usps_train)

(usps_train_labels <- usps_train[, 1])
```

    ## # A tibble: 7,291 × 1
    ##       X1
    ##    <dbl>
    ##  1     6
    ##  2     5
    ##  3     4
    ##  4     7
    ##  5     3
    ##  6     6
    ##  7     3
    ##  8     1
    ##  9     0
    ## 10     1
    ## # … with 7,281 more rows
…
